"feature"                    ,"weight"
"(Intercept)"                ,0.534372370707402
"bikes_3h_ago"               ,0.520304998538983
"short_profile_bikes"        ,0.260494264195686
"short_profile_3h_diff_bikes",0.344526032657616
